1 10 20
100 200 125
201 210 89
900 1000 174
1 999999 525
8 8 4
999999 500000 525
1 500000 449
768979 850291 525
125597 941712 525
862554 436755 525
41847 256827 443
166854 135440 383
510681 739229 509
141462 394285 443
224859 785667 509
798330 947229 525
730081 192614 509
443992 464819 444
797086 460173 509
46157 206965 383
887828 491981 525
969333 634937 525
260191 226089 443
93313 887304 525
380956 964310 525
390925 174977 443
507785 851464 525
222080 201229 386
806253 48920 509
343783 220968 443
730971 193218 509
158524 389643 443
74836 5441 340
556137 294935 470
279142 410572 449
441833 627110 509
750456 884502 525
88830 16995 351
257824 253740 363
535545 863287 525
389367 169972 443
558110 15206 470
498024 659156 509
274805 932125 525
639648 91405 509
143216 829833 509
588345 302473 470
367949 746421 509
757590 372128 509
412232 498898 444
695 781929 509
743023 552368 509
256818 788709 509
955927 31852 525
566170 368515 470
486670 590208 470
833913 787127 468
931806 503373 525
520 517702 470
406758 337759 441
60722 829090 509
619025 658644 509
76891 134354 354
151750 336279 443
693917 528871 509
707309 128181 509
76823 491308 449
963844 679060 525
724409 428091 509
965131 968750 365
940585 920895 507
806116 862756 525
115430 531285 470
222817 560828 470
673507 74754 509
473163 134532 449
24054 455084 449
454231 364652 449
855521 310972 525
827062 4742 509
559631 104836 470
734936 734300 287
753644 329744 509
381579 779542 509
14973 170116 383
725761 856896 525
632781 13446 509
72351 199378 383
713371 252165 509
440845 24113 449
303949 704720 509
481327 545734 470
34418 111412 354
256179 455911 449
329427 97575 443
899046 904974 401
962954 712109 525
34466 424791 449
807906 296141 509
160614 438922 449
284381 565822 470
399952 914018 525
918763 100866 525
422985 769654 509
14907 507997 449
502568 451752 444
468247 304623 449
3000 6500 262
2500 7000 262
