..................
----------------------------------------------------------------------
Ran 18 tests in 0.516s

OK
Name             Stmts   Miss Branch BrPart  Cover   Missing
------------------------------------------------------------
Collatz.py          43      0     14      0   100%
TestCollatz.py      78      0      2      0   100%
------------------------------------------------------------
TOTAL              121      0     16      0   100%
